{
  "info": {
    "_postman_id": "993009a6-29a3-4abc-bcbb-6074858d5305",
    "name": "Spring Boot Rekening",
    "schema": "https://schema.getpostman.com/json/collection/v2.1.0/collection.json"
  },
  "item": [
    {
      "name": "List All Rekening",
      "request": {
        "method": "GET",
        "header": [],
        "url": {
          "raw": "localhost:8080/rekening",
          "host": [
            "localhost"
          ],
          "port": "8080",
          "path": [
            "rekening"
          ]
        },
        "description": "List All Rekening"
      },
      "response": []
    },
    {
      "name": "Transfer Money",
      "request": {
        "method": "POST",
        "header": [],
        "body": {
          "mode": "raw",
          "raw": "{\n    \"norek1\": \"ABC1001\",\n    \"norek2\": \"ABC1002\",\n    \"amount\": 100.0\n}",
          "options": {
            "raw": {
              "language": "json"
            }
          }
        },
        "url": {
          "raw": "localhost:8080/rekening/transfer",
          "host": [
            "localhost"
          ],
          "port": "8080",
          "path": [
            "rekening",
            "transfer"
          ]
        },
        "description": "Transfer Money"
      },
      "response": []
    },
    {
      "name": "Create New Rekening",
      "request": {
        "method": "POST",
        "header": [],
        "body": {
          "mode": "raw",
          "raw": " {\n        \"norek\": \"ABC1006\",\n        \"name\": \"Tsunade\",\n        \"saldo\": 10000.0\n    }",
          "options": {
            "raw": {
              "language": "json"
            }
          }
        },
        "url": {
          "raw": "localhost:8080/rekening",
          "host": [
            "localhost"
          ],
          "port": "8080",
          "path": [
            "rekening"
          ]
        },
        "description": "Create New Rekening"
      },
      "response": []
    },
    {
      "name": "Find By Norek",
      "request": {
        "method": "GET",
        "header": [],
        "url": {
          "raw": "localhost:8080/rekening/ABC1001",
          "host": [
            "localhost"
          ],
          "port": "8080",
          "path": [
            "rekening",
            "ABC1001"
          ]
        },
        "description": "Find By Norek"
      },
      "response": []
    }
  ]
}
